{
    "arrowParens": "avoid",
    "bracketSpacing": true,
    "htmlWhitespaceSensitivity": "ignore",
    "insertPragma": false,
    "jsxBracketSameLine": false,
    "jsxSingleQuote": false,
    "printWidth": 120,
    "proseWrap": "never",
    "quoteProps": "as-needed",
    "requirePragma": false,
    "semi": true,
    "singleQuote": false,
    "tabWidth": 2,
    "trailingComma": "all",
    "useTabs": true,
    "vueIndentScriptAndStyle": false,
    "singleAttributePerLine": false
  }
  
  